[{
        "partnerType": "self",
        "name": "In Exchange",
        "shortName": "INEXCHG",
        "address": "Mumbai",
        "pan": "APAPAP",
        "gstin": "8382222",
        "cin": "IJAIAA",
        "contactPerson": "Mukul Bhatia",
        "designation": "CEO",
        "mobileNumber": "911911911911",
        "cityName": "Mumbai",
        "districtName": "Mumbai",
        "stateName": "Maharashtra",
        "pincode": "400066",
        "countryName": "India"
    },
    {
        "partnerType": "broker",
        "name": "TATA",
        "shortName": "TT",
        "address": "Mumbai",
        "pan": "APAaPAP",
        "gstin": "83822a22",
        "cin": "IJAIAaA",
        "contactPerson": "Mukul Bhatia",
        "designation": "CEO",
        "mobileNumber": "918911911911",
        "cityName": "Mumbai",
        "districtName": "Mumbai",
        "stateName": "Maharashtra",
        "pincode": "400061",
        "countryName": "India"
    },
    {
        "partnerType": "broker",
        "name": "LogicLoop",
        "shortName": "LL",
        "address": "Mumbai",
        "pan": "APaAPAP",
        "gstin": "83823222",
        "cin": "IJAIAwA",
        "contactPerson": "Mukul Bhatia",
        "designation": "CEO",
        "mobileNumber": "91911911911",
        "cityName": "Mumbai",
        "districtName": "Mumbai",
        "stateName": "Maharashtra",
        "pincode": "400066",
        "countryName": "India"
    },
    {
        "partnerType": "insurer",
        "name": "Nokia",
        "shortName": "nkia",
        "address": "Mumbai",
        "pan": "APAPsAP",
        "gstin": "83822212",
        "cin": "ssssss",
        "contactPerson": "Mukul Bhatia",
        "designation": "CEO",
        "mobileNumber": "92911911911",
        "cityName": "Mumbai",
        "districtName": "Mumbai",
        "stateName": "Maharashtra",
        "pincode": "400063",
        "countryName": "India"
    },
    {
        "partnerType": "insurer",
        "name": "Apple",
        "shortName": "apl",
        "address": "Mumbai",
        "pan": "APPAP",
        "gstin": "838222",
        "cin": "IJAIA",
        "contactPerson": "Mukul Bhatia",
        "designation": "CEO",
        "mobileNumber": "911915511911",
        "cityName": "Mumbai",
        "districtName": "Mumbai",
        "stateName": "Maharashtra",
        "pincode": "400062",
        "countryName": "India"
    }
]