Industry type, From SI , To SI ,Rate (Per Mile), to be add for earlier layers ,Remark
Non Industrial,  0   ,"  10000000000 ",0.15, 0 ,"SI till ""To SI"" amount should be considered for calculating premium"
Non Industrial,"  10000000001 ","  25000000000 ",0.12,"  1500000 ","SI excess of ""From SI"" amt. till ""To SI"" amt. should be considered for calculation premium"
Non Industrial,"  25000000001 ","  50000000000 ",0.1,"  3300000 ","SI excess of ""From SI"" amt. till ""To SI"" amt. should be considered for calculation premium"
Non Industrial,"  50000000001 ","  100000000000 ",0.08,"  5800000 ","SI excess of ""From SI"" amt. till ""To SI"" amt. should be considered for calculation premium"
Non Industrial,"  100000000001 ", 0 ,0.06,"  9800000 ","SI above  ""To SI"" amount should be charged with the rate"
Industrial,  0   ,"  5000000000 ",0.23,,"SI till ""To SI"" amount should be considered for calculating premium"
Industrial,"  5000000001 ","  15000000000 ",0.2,"  1150000 ","SI excess of ""From SI"" amt. till ""To SI"" amt. should be considered for calculation premium"
Industrial,"  15000000001 ","  25000000000 ",0.15,"  3150000 ","SI excess of ""From SI"" amt. till ""To SI"" amt. should be considered for calculation premium"
Industrial,"  25000000001 ","  50000000000 ",0.1,"  4650000 ","SI excess of ""From SI"" amt. till ""To SI"" amt. should be considered for calculation premium"
Industrial,"  50000000001 ","  100000000000 ",0.08,"  7150000 ","SI excess of ""From SI"" amt. till ""To SI"" amt. should be considered for calculation premium"
Industrial,"  100000000001 ", 0 ,0.06,"  11150000 ","SI above  ""To SI"" amount should be charged with the rate"
Residential Society,  0   ,"  15000000000 ",0.08,,"SI till ""To SI"" amount should be considered for calculating premium"
Residential Society,"  15000000001 ", 0 ,0.05,"  1200000 ","SI till ""To SI"" amount should be charged with the rate"